; Engine configuration file.
; It's best edited using the editor UI and not directly,
; since the parameters that go here are not all obvious.
;
; Format:
;   [section] ; section goes between []
;   param=value ; assign values to parameters

config_version=4

_global_script_classes=[ {
"base": "TextureButton",
"class": "ScaleToggleButton",
"language": "GDScript",
"path": "res://scripts/scale_toggle_button.gd"
}, {
"base": "Node",
"class": "ToggleButtonManager",
"language": "GDScript",
"path": "res://scripts/toggle_button_manager.gd"
} ]
_global_script_class_icons={
"ScaleToggleButton": "res://images/passengers/triangle.svg",
"ToggleButtonManager": "res://images/nodes/triangle.svg"
}

[application]

config/name="MiniMetro"
run/main_scene="res://scenes/game.tscn"
config/icon="res://icon.png"

[display]

window/stretch/aspect="expand"

[input]

click={
"deadzone": 0.5,
"events": [ Object(InputEventMouseButton,"resource_local_to_scene":false,"resource_name":"","device":0,"alt":false,"shift":false,"control":false,"meta":false,"command":false,"button_mask":0,"position":Vector2( 0, 0 ),"global_position":Vector2( 0, 0 ),"factor":1.0,"button_index":1,"pressed":false,"doubleclick":false,"script":null)
 ]
}

[physics]

common/enable_pause_aware_picking=true

[rendering]

2d/options/use_nvidia_rect_flicker_workaround=true
2d/snapping/use_gpu_pixel_snap=true
environment/default_clear_color=Color( 1, 1, 1, 1 )
environment/default_environment="res://default_env.tres"
