[gd_scene load_steps=2 format=2]

[ext_resource path="res://images/passengers/circle.svg" type="Texture" id=1]

[node name="passenger_circle" type="Node2D"]

[node name="Sprite" type="Sprite" parent="."]
scale = Vector2( 0.5, 0.5 )
texture = ExtResource( 1 )
