[gd_scene load_steps=3 format=2]

[ext_resource path="res://scenes/instance/passengers/circle.tscn" type="PackedScene" id=1]
[ext_resource path="res://images/passengers/square.svg" type="Texture" id=2]

[node name="passenger_square" instance=ExtResource( 1 )]

[node name="Sprite" parent="." index="0"]
texture = ExtResource( 2 )
