[gd_scene load_steps=7 format=2]

[ext_resource path="res://images/nodes/circle.svg" type="Texture" id=1]
[ext_resource path="res://scripts/node.gd" type="Script" id=2]
[ext_resource path="res://scenes/instance/passengers/square.tscn" type="PackedScene" id=3]
[ext_resource path="res://scenes/instance/passengers/triangle.tscn" type="PackedScene" id=4]
[ext_resource path="res://scenes/instance/passengers/circle.tscn" type="PackedScene" id=5]

[sub_resource type="CircleShape2D" id=1]
radius = 24.0

[node name="circle" type="Area2D"]
z_index = 1
script = ExtResource( 2 )
passenger_square = ExtResource( 3 )
passenger_triangle = ExtResource( 4 )
passenger_circle = ExtResource( 5 )

[node name="CollisionShape2D" type="CollisionShape2D" parent="."]
shape = SubResource( 1 )

[node name="sprite" type="Sprite" parent="."]
scale = Vector2( 0.5, 0.5 )
texture = ExtResource( 1 )

[node name="passengers" type="Node2D" parent="."]
position = Vector2( 32, -32 )
